<?xml version="1.0" encoding="UTF-8" standalone="no"?>
<!-- Created with Inkscape (http://www.inkscape.org/) -->

<svg
   xmlns:dc="http://purl.org/dc/elements/1.1/"
   xmlns:cc="http://creativecommons.org/ns#"
   xmlns:rdf="http://www.w3.org/1999/02/22-rdf-syntax-ns#"
   xmlns:svg="http://www.w3.org/2000/svg"
   xmlns="http://www.w3.org/2000/svg"
   xmlns:xlink="http://www.w3.org/1999/xlink"
   xmlns:sodipodi="http://sodipodi.sourceforge.net/DTD/sodipodi-0.dtd"
   xmlns:inkscape="http://www.inkscape.org/namespaces/inkscape"
   id="svg2"
   version="1.1"
   inkscape:version="0.48.1 r9760"
   width="360"
   height="500"
   sodipodi:docname="martini.svg">
  <metadata
     id="metadata8">
    <rdf:RDF>
      <cc:Work
         rdf:about="">
        <dc:format>image/svg+xml</dc:format>
        <dc:type
           rdf:resource="http://purl.org/dc/dcmitype/StillImage" />
        <dc:title />
      </cc:Work>
    </rdf:RDF>
  </metadata>
  <defs
     id="defs6">
    <linearGradient
       id="linearGradient3179">
      <stop
         style="stop-color:#808080;stop-opacity:0;"
         offset="0"
         id="stop3181" />
      <stop
         id="stop3187"
         offset="0.5"
         style="stop-color:#808080;stop-opacity:0.58793968;" />
      <stop
         style="stop-color:#808080;stop-opacity:0;"
         offset="1"
         id="stop3183" />
    </linearGradient>
    <linearGradient
       inkscape:collect="always"
       id="linearGradient3169">
      <stop
         style="stop-color:#deaa87;stop-opacity:1;"
         offset="0"
         id="stop3171" />
      <stop
         style="stop-color:#f4e3d7;stop-opacity:1"
         offset="1"
         id="stop3173" />
    </linearGradient>
    <linearGradient
       id="linearGradient3161">
      <stop
         style="stop-color:#ffffff;stop-opacity:1;"
         offset="0"
         id="stop3163" />
      <stop
         style="stop-color:#ffffff;stop-opacity:0;"
         offset="1"
         id="stop3165" />
    </linearGradient>
    <linearGradient
       inkscape:collect="always"
       id="linearGradient3143">
      <stop
         style="stop-color:#dd4652;stop-opacity:1;"
         offset="0"
         id="stop3145" />
      <stop
         style="stop-color:#ff2a2a;stop-opacity:1"
         offset="1"
         id="stop3147" />
    </linearGradient>
    <linearGradient
       inkscape:collect="always"
       id="linearGradient3080">
      <stop
         style="stop-color:#7da75d;stop-opacity:1;"
         offset="0"
         id="stop3082" />
      <stop
         style="stop-color:#7a946c;stop-opacity:1"
         offset="1"
         id="stop3084" />
    </linearGradient>
    <linearGradient
       inkscape:collect="always"
       id="linearGradient3872">
      <stop
         style="stop-color:#b7c9d1;stop-opacity:1;"
         offset="0"
         id="stop3874" />
      <stop
         style="stop-color:#b7c9d1;stop-opacity:0;"
         offset="1"
         id="stop3876" />
    </linearGradient>
    <linearGradient
       id="linearGradient3047">
      <stop
         style="stop-color:#3a7d74;stop-opacity:0.5;"
         offset="0"
         id="stop3049" />
      <stop
         id="stop3051"
         offset="0.29954749"
         style="stop-color:#00101f;stop-opacity:0.5;" />
      <stop
         id="stop3053"
         offset="0.61358374"
         style="stop-color:#d8d9d8;stop-opacity:0.5;" />
      <stop
         style="stop-color:#b7c9d1;stop-opacity:0.87843138"
         offset="1"
         id="stop3055" />
    </linearGradient>
    <linearGradient
       id="linearGradient3785">
      <stop
         id="stop3787"
         offset="0"
         style="stop-color:#0096c8;stop-opacity:0.40000001;" />
      <stop
         style="stop-color:#002e3d;stop-opacity:0.40000001;"
         offset="0.16897547"
         id="stop3797" />
      <stop
         style="stop-color:#0095c7;stop-opacity:0.40000001;"
         offset="0.50896662"
         id="stop3795" />
      <stop
         style="stop-color:#002e3d;stop-opacity:0.40000001;"
         offset="0.84936064"
         id="stop3793" />
      <stop
         id="stop3789"
         offset="1"
         style="stop-color:#0095c7;stop-opacity:0.40000001;" />
    </linearGradient>
    <linearGradient
       id="linearGradient3799">
      <stop
         id="stop3801"
         offset="0"
         style="stop-color:#3a7d74;stop-opacity:0.5;" />
      <stop
         style="stop-color:#00101f;stop-opacity:0.5;"
         offset="0.29954749"
         id="stop3809" />
      <stop
         style="stop-color:#d8d9d8;stop-opacity:0.5;"
         offset="0.61358374"
         id="stop3807" />
      <stop
         id="stop3803"
         offset="1"
         style="stop-color:#77b5b4;stop-opacity:0.5;" />
    </linearGradient>
    <linearGradient
       id="linearGradient3819">
      <stop
         id="stop3821"
         offset="0"
         style="stop-color:#067f94;stop-opacity:0.1;" />
      <stop
         style="stop-color:#068096;stop-opacity:0.09547739;"
         offset="0.73704278"
         id="stop3827" />
      <stop
         id="stop3823"
         offset="1"
         style="stop-color:#045766;stop-opacity:0.25125629;" />
    </linearGradient>
    <linearGradient
       id="linearGradient3829">
      <stop
         id="stop3831"
         offset="0"
         style="stop-color:#f2f4f3;stop-opacity:0.5;" />
      <stop
         style="stop-color:#f3f5f4;stop-opacity:0.5;"
         offset="0.7530852"
         id="stop3837" />
      <stop
         id="stop3833"
         offset="1"
         style="stop-color:#bdc7c2;stop-opacity:0.38190955;" />
    </linearGradient>
    <linearGradient
       id="linearGradient3839">
      <stop
         id="stop3841"
         offset="0"
         style="stop-color:#b3cbcb;stop-opacity:0.30000001;" />
      <stop
         id="stop3843"
         offset="1"
         style="stop-color:#eff0f2;stop-opacity:0.02;" />
    </linearGradient>
    <linearGradient
       id="linearGradient3849">
      <stop
         id="stop3851"
         offset="0"
         style="stop-color:#ffffff;stop-opacity:0.5;" />
      <stop
         id="stop3853"
         offset="1"
         style="stop-color:#edf1f2;stop-opacity:0.5;" />
    </linearGradient>
    <linearGradient
       id="linearGradient3857">
      <stop
         id="stop3859"
         offset="0"
         style="stop-color:#8aa9b7;stop-opacity:0.5;" />
      <stop
         id="stop3861"
         offset="1"
         style="stop-color:#ffffff;stop-opacity:0.5;" />
    </linearGradient>
    <linearGradient
       id="linearGradient3869">
      <stop
         id="stop3871"
         offset="0"
         style="stop-color:#ffffff;stop-opacity:0.5;" />
      <stop
         style="stop-color:#cccccc;stop-opacity:0.49803922;"
         offset="0.5"
         id="stop3877" />
      <stop
         id="stop3873"
         offset="1"
         style="stop-color:#ffffff;stop-opacity:0.5;" />
    </linearGradient>
    <radialGradient
       inkscape:collect="always"
       xlink:href="#linearGradient3829"
       id="radialGradient3114"
       gradientUnits="userSpaceOnUse"
       gradientTransform="matrix(1,0,0,0.14795274,0,356.36094)"
       cx="346.5498"
       cy="429.01126"
       fx="346.5498"
       fy="429.01126"
       r="88.052383" />
    <linearGradient
       inkscape:collect="always"
       xlink:href="#linearGradient3857"
       id="linearGradient3128"
       gradientUnits="userSpaceOnUse"
       gradientTransform="matrix(1.9168254,0,0,1.8968737,-956.1801,-533.92994)"
       x1="346.4425"
       y1="328.36066"
       x2="346.57166"
       y2="294.41745" />
    <radialGradient
       inkscape:collect="always"
       xlink:href="#linearGradient3799"
       id="radialGradient3131"
       gradientUnits="userSpaceOnUse"
       gradientTransform="matrix(3.4612852,0,0,0.58032886,-771.63383,501.83961)"
       cx="344.31039"
       cy="719.6156"
       fx="344.31039"
       fy="719.6156"
       r="72.966263" />
    <linearGradient
       inkscape:collect="always"
       xlink:href="#linearGradient3785"
       id="linearGradient3134"
       gradientUnits="userSpaceOnUse"
       gradientTransform="matrix(2.5396849,0,0,2.5713181,-108.81822,-1148.3464)"
       x1="274.43054"
       y1="709.39752"
       x2="415.95059"
       y2="709.39752" />
    <radialGradient
       inkscape:collect="always"
       xlink:href="#linearGradient3819"
       id="radialGradient3137"
       gradientUnits="userSpaceOnUse"
       gradientTransform="matrix(2.561976,0,0,0.34742894,-116.56395,-228.8478)"
       cx="346.30899"
       cy="467.06451"
       fx="346.30899"
       fy="467.06451"
       r="88.705856" />
    <linearGradient
       inkscape:collect="always"
       xlink:href="#linearGradient3839"
       id="linearGradient3142"
       gradientUnits="userSpaceOnUse"
       x1="423.12997"
       y1="567.00372"
       x2="387.54782"
       y2="565.92242"
       gradientTransform="matrix(2.5713181,0,0,2.5713181,67.327009,-1142.9109)" />
    <linearGradient
       inkscape:collect="always"
       xlink:href="#linearGradient3839"
       id="linearGradient3145"
       gradientUnits="userSpaceOnUse"
       gradientTransform="matrix(2.5713181,0,0,2.5713181,-103.81727,-1145.5659)"
       x1="202.16457"
       y1="549.26562"
       x2="241.41815"
       y2="546.20715" />
    <radialGradient
       inkscape:collect="always"
       xlink:href="#linearGradient3849"
       id="radialGradient3148"
       gradientUnits="userSpaceOnUse"
       gradientTransform="matrix(2.5713181,0,0,2.1926392,445.14092,-904.88867)"
       cx="125.81239"
       cy="457.75381"
       fx="125.81239"
       fy="457.75381"
       r="93.046715" />
    <linearGradient
       inkscape:collect="always"
       xlink:href="#linearGradient3869"
       id="linearGradient3154"
       gradientUnits="userSpaceOnUse"
       x1="257.01611"
       y1="357.74576"
       x2="435.5173"
       y2="357.74576" />
    <linearGradient
       inkscape:collect="always"
       xlink:href="#linearGradient3849"
       id="linearGradient3930"
       x1="-464.6568"
       y1="234.40228"
       x2="-115.59306"
       y2="234.40228"
       gradientUnits="userSpaceOnUse" />
    <linearGradient
       inkscape:collect="always"
       xlink:href="#linearGradient3857"
       id="linearGradient3944"
       x1="-465.14832"
       y1="234.39729"
       x2="-113.09508"
       y2="234.39729"
       gradientUnits="userSpaceOnUse"
       gradientTransform="translate(0,3)" />
    <linearGradient
       inkscape:collect="always"
       xlink:href="#linearGradient3857"
       id="linearGradient3962"
       x1="-288.42709"
       y1="440.94827"
       x2="-296.3421"
       y2="-101.69983"
       gradientUnits="userSpaceOnUse" />
    <radialGradient
       inkscape:collect="always"
       xlink:href="#linearGradient3829"
       id="radialGradient3970"
       cx="-291.8963"
       cy="424.01016"
       fx="-291.8963"
       fy="424.01016"
       r="88.401497"
       gradientTransform="matrix(1,0,0,0.66848972,0,161.45514)"
       gradientUnits="userSpaceOnUse" />
    <linearGradient
       inkscape:collect="always"
       xlink:href="#linearGradient3857"
       id="linearGradient3984"
       x1="-293.93219"
       y1="510.91183"
       x2="-294.39819"
       y2="406.73065"
       gradientUnits="userSpaceOnUse"
       gradientTransform="translate(0,-3)" />
    <radialGradient
       inkscape:collect="always"
       xlink:href="#linearGradient3819"
       id="radialGradient3058"
       gradientUnits="userSpaceOnUse"
       gradientTransform="matrix(1.142465,0,0,0.11246274,-686.70751,92.840659)"
       cx="346.30899"
       cy="467.06451"
       fx="346.30899"
       fy="467.06451"
       r="88.705856" />
    <radialGradient
       inkscape:collect="always"
       xlink:href="#linearGradient3829"
       id="radialGradient3061"
       gradientUnits="userSpaceOnUse"
       gradientTransform="matrix(1,0,0,0.14795274,0,356.36094)"
       cx="346.5498"
       cy="429.01126"
       fx="346.5498"
       fy="429.01126"
       r="88.052383" />
    <radialGradient
       inkscape:collect="always"
       xlink:href="#linearGradient3047"
       id="radialGradient3066"
       gradientUnits="userSpaceOnUse"
       gradientTransform="matrix(0.29203614,0,0,0.06485894,-392.27747,396.41369)"
       cx="347.73462"
       cy="719.6156"
       fx="347.73462"
       fy="719.6156"
       r="72.966263" />
    <linearGradient
       inkscape:collect="always"
       xlink:href="#linearGradient3839"
       id="linearGradient3844"
       x1="-377.80426"
       y1="169.90036"
       x2="-340.29095"
       y2="148.12048"
       gradientUnits="userSpaceOnUse" />
    <linearGradient
       inkscape:collect="always"
       xlink:href="#linearGradient3839"
       id="linearGradient3854"
       x1="-185.62892"
       y1="141.09427"
       x2="-216.65816"
       y2="118.6738"
       gradientUnits="userSpaceOnUse"
       gradientTransform="translate(1,-1)" />
    <linearGradient
       inkscape:collect="always"
       xlink:href="#linearGradient3839"
       id="linearGradient3866"
       x1="-289.80496"
       y1="245.82484"
       x2="-290.24185"
       y2="158.06477"
       gradientUnits="userSpaceOnUse" />
    <linearGradient
       inkscape:collect="always"
       xlink:href="#linearGradient3872"
       id="linearGradient3878"
       x1="-311.98431"
       y1="338.81534"
       x2="-282.52438"
       y2="338.81534"
       gradientUnits="userSpaceOnUse" />
    <linearGradient
       inkscape:collect="always"
       xlink:href="#linearGradient3080"
       id="linearGradient3116"
       gradientUnits="userSpaceOnUse"
       gradientTransform="matrix(0.97317883,-0.23004991,-0.23004991,-0.97317883,-182.81746,321.75199)"
       x1="-52.509109"
       y1="198.86702"
       x2="-46.916714"
       y2="178.00323" />
    <linearGradient
       inkscape:collect="always"
       xlink:href="#linearGradient3080"
       id="linearGradient3132"
       gradientUnits="userSpaceOnUse"
       gradientTransform="translate(-217.60975,-2.0940767)"
       x1="-71.513336"
       y1="155.884"
       x2="-69.084908"
       y2="210.23941" />
    <linearGradient
       inkscape:collect="always"
       xlink:href="#linearGradient3143"
       id="linearGradient3149"
       x1="211.08012"
       y1="157.63068"
       x2="228.29266"
       y2="157.63068"
       gradientUnits="userSpaceOnUse" />
    <linearGradient
       inkscape:collect="always"
       xlink:href="#linearGradient3161"
       id="linearGradient3167"
       x1="-287.63065"
       y1="111.6289"
       x2="-290.80139"
       y2="141.97733"
       gradientUnits="userSpaceOnUse" />
    <linearGradient
       inkscape:collect="always"
       xlink:href="#linearGradient3169"
       id="linearGradient3175"
       x1="-322.46875"
       y1="102.1875"
       x2="-289.46875"
       y2="95.1875"
       gradientUnits="userSpaceOnUse" />
    <linearGradient
       inkscape:collect="always"
       xlink:href="#linearGradient3179"
       id="linearGradient3185"
       x1="-292.74911"
       y1="443.88766"
       x2="-292.81879"
       y2="463.38242"
       gradientUnits="userSpaceOnUse"
       gradientTransform="translate(-2,7)" />
    <linearGradient
       inkscape:collect="always"
       xlink:href="#linearGradient3179"
       id="linearGradient3961"
       gradientUnits="userSpaceOnUse"
       x1="-292.74911"
       y1="443.88766"
       x2="-292.81879"
       y2="463.38242"
       gradientTransform="translate(0,18.843507)" />
    <linearGradient
       inkscape:collect="always"
       xlink:href="#linearGradient3839"
       id="linearGradient3986"
       gradientUnits="userSpaceOnUse"
       x1="-377.80426"
       y1="169.90036"
       x2="-340.29095"
       y2="148.12048" />
    <linearGradient
       inkscape:collect="always"
       xlink:href="#linearGradient3839"
       id="linearGradient3988"
       gradientUnits="userSpaceOnUse"
       gradientTransform="translate(1,-1)"
       x1="-185.62892"
       y1="141.09427"
       x2="-216.65816"
       y2="118.6738" />
    <linearGradient
       inkscape:collect="always"
       xlink:href="#linearGradient3849"
       id="linearGradient3990"
       gradientUnits="userSpaceOnUse"
       x1="-464.6568"
       y1="234.40228"
       x2="-115.59306"
       y2="234.40228" />
    <linearGradient
       inkscape:collect="always"
       xlink:href="#linearGradient3857"
       id="linearGradient3992"
       gradientUnits="userSpaceOnUse"
       gradientTransform="matrix(1.9168254,0,0,1.8968737,-956.1801,-533.92994)"
       x1="346.4425"
       y1="328.36066"
       x2="346.57166"
       y2="294.41745" />
    <radialGradient
       inkscape:collect="always"
       xlink:href="#linearGradient3829"
       id="radialGradient3994"
       gradientUnits="userSpaceOnUse"
       gradientTransform="matrix(1,0,0,0.66848972,0,161.45514)"
       cx="-291.8963"
       cy="424.01016"
       fx="-291.8963"
       fy="424.01016"
       r="88.401497" />
    <linearGradient
       inkscape:collect="always"
       xlink:href="#linearGradient3857"
       id="linearGradient3996"
       gradientUnits="userSpaceOnUse"
       gradientTransform="translate(0,-3)"
       x1="-293.93219"
       y1="510.91183"
       x2="-294.39819"
       y2="406.73065" />
    <linearGradient
       inkscape:collect="always"
       xlink:href="#linearGradient3857"
       id="linearGradient3998"
       gradientUnits="userSpaceOnUse"
       x1="-288.42709"
       y1="440.94827"
       x2="-296.3421"
       y2="-101.69983" />
    <radialGradient
       inkscape:collect="always"
       xlink:href="#linearGradient3829"
       id="radialGradient4000"
       gradientUnits="userSpaceOnUse"
       gradientTransform="matrix(1,0,0,0.14795274,0,356.36094)"
       cx="346.5498"
       cy="429.01126"
       fx="346.5498"
       fy="429.01126"
       r="88.052383" />
    <linearGradient
       inkscape:collect="always"
       xlink:href="#linearGradient3169"
       id="linearGradient4002"
       gradientUnits="userSpaceOnUse"
       x1="-322.46875"
       y1="102.1875"
       x2="-289.46875"
       y2="95.1875" />
    <linearGradient
       inkscape:collect="always"
       xlink:href="#linearGradient3080"
       id="linearGradient4004"
       gradientUnits="userSpaceOnUse"
       gradientTransform="translate(-217.60975,-2.0940767)"
       x1="-71.513336"
       y1="155.884"
       x2="-69.084908"
       y2="210.23941" />
    <radialGradient
       inkscape:collect="always"
       xlink:href="#linearGradient3819"
       id="radialGradient4006"
       gradientUnits="userSpaceOnUse"
       gradientTransform="matrix(1.142465,0,0,0.11246274,-686.70751,92.840659)"
       cx="346.30899"
       cy="467.06451"
       fx="346.30899"
       fy="467.06451"
       r="88.705856" />
    <radialGradient
       inkscape:collect="always"
       xlink:href="#linearGradient3047"
       id="radialGradient4008"
       gradientUnits="userSpaceOnUse"
       gradientTransform="matrix(0.29203614,0,0,0.06485894,-392.27747,396.41369)"
       cx="347.73462"
       cy="719.6156"
       fx="347.73462"
       fy="719.6156"
       r="72.966263" />
    <linearGradient
       inkscape:collect="always"
       xlink:href="#linearGradient3839"
       id="linearGradient4010"
       gradientUnits="userSpaceOnUse"
       x1="-289.80496"
       y1="245.82484"
       x2="-290.24185"
       y2="158.06477" />
    <linearGradient
       inkscape:collect="always"
       xlink:href="#linearGradient3872"
       id="linearGradient4012"
       gradientUnits="userSpaceOnUse"
       x1="-311.98431"
       y1="338.81534"
       x2="-282.52438"
       y2="338.81534" />
    <linearGradient
       inkscape:collect="always"
       xlink:href="#linearGradient3080"
       id="linearGradient4014"
       gradientUnits="userSpaceOnUse"
       gradientTransform="matrix(0.97317883,-0.23004991,-0.23004991,-0.97317883,-182.81746,321.75199)"
       x1="-52.509109"
       y1="198.86702"
       x2="-46.916714"
       y2="178.00323" />
    <linearGradient
       inkscape:collect="always"
       xlink:href="#linearGradient3143"
       id="linearGradient4016"
       gradientUnits="userSpaceOnUse"
       x1="211.08012"
       y1="157.63068"
       x2="228.29266"
       y2="157.63068" />
    <linearGradient
       inkscape:collect="always"
       xlink:href="#linearGradient3857"
       id="linearGradient4018"
       gradientUnits="userSpaceOnUse"
       gradientTransform="matrix(1.9168254,0,0,1.8968737,-956.1801,-533.92994)"
       x1="346.4425"
       y1="328.36066"
       x2="346.57166"
       y2="294.41745" />
    <linearGradient
       inkscape:collect="always"
       xlink:href="#linearGradient3161"
       id="linearGradient4020"
       gradientUnits="userSpaceOnUse"
       x1="-287.63065"
       y1="111.6289"
       x2="-290.80139"
       y2="141.97733" />
    <linearGradient
       inkscape:collect="always"
       xlink:href="#linearGradient3179"
       id="linearGradient4022"
       gradientUnits="userSpaceOnUse"
       gradientTransform="translate(-2,7)"
       x1="-292.74911"
       y1="443.88766"
       x2="-292.81879"
       y2="463.38242" />
  </defs>
  <sodipodi:namedview
     pagecolor="#ffffff"
     bordercolor="#666666"
     borderopacity="1"
     objecttolerance="10"
     gridtolerance="10"
     guidetolerance="10"
     inkscape:pageopacity="0"
     inkscape:pageshadow="2"
     inkscape:window-width="1280"
     inkscape:window-height="969"
     id="namedview4"
     showgrid="false"
     showguides="true"
     inkscape:guide-bbox="true"
     inkscape:zoom="0.5519231"
     inkscape:cx="-231.12743"
     inkscape:cy="107.02784"
     inkscape:window-x="0"
     inkscape:window-y="26"
     inkscape:window-maximized="1"
     inkscape:current-layer="svg2">
    <inkscape:grid
       type="xygrid"
       id="grid3868"
       empspacing="5"
       visible="true"
       enabled="true"
       snapvisiblegridlinesonly="true" />
  </sodipodi:namedview>
  <path
     style="fill:none;stroke:none"
     d="m 533.45824,-252.66611 54.51874,808.94028 c 0,0 33.89002,50.0983 169.45014,50.0983 135.56012,0 194.49931,-55.99223 194.49931,-55.99223 l 57.46567,-804.51982 c 0,0 -5.8939,47.15134 -241.65062,47.15134 -235.75673,0 -234.28324,-45.67787 -234.28324,-45.67787 z"
     id="path3769"
     inkscape:connector-curvature="0" />
  <g
     id="g3963"
     transform="translate(470.11977,0.34846783)">
    <path
       inkscape:connector-curvature="0"
       id="path3836"
       d="m -458.65851,67.106749 60.85553,12.81169 97.36884,131.960411 -11.65644,23.66123 z"
       style="fill:url(#linearGradient3986);fill-opacity:1;stroke:none" />
    <path
       inkscape:connector-curvature="0"
       id="path3846"
       d="m -259.7179,226.25288 138.36626,-159.505547 -70.4643,24.982796 -64.05845,87.760081 z"
       style="fill:url(#linearGradient3988);fill-opacity:1;stroke:none" />
    <path
       sodipodi:nodetypes="cacccsssaassccc"
       inkscape:connector-curvature="0"
       id="path3152"
       d="m -310.97854,439.28635 c 0,0 12.43565,6.5904 19.21754,6.68701 7.38982,0.10527 21.13928,-6.68701 21.13928,-6.68701 l -10.88993,-16.6552 1.28117,-155.66204 c 0,0 6.44364,-21.60096 13.45227,-31.3104 40.92369,-56.69386 134.09501,-151.179257 150.81854,-176.238995 2.50748,-3.757389 -8.41989,-13.70157 -15.37403,-16.655198 -44.48843,-18.895534 -100.35242,-19.888589 -151.17795,-19.858121 -56.86467,0.03409 -118.12535,-2.753285 -169.11432,22.420459 -5.41544,2.673655 -14.56202,7.0314 -12.81169,12.811691 5.87044,19.386551 108.74016,122.982444 150.89678,176.160744 7.25695,9.15425 10.88994,33.3104 10.88994,33.3104 l 2.56234,155.94321 z"
       style="fill:url(#linearGradient3990);fill-opacity:1;stroke:none" />
    <path
       inkscape:connector-curvature="0"
       id="path2996"
       d="m -290.46637,24.010165 c -97.08973,0 -175.80882,14.50724 -175.80882,32.42468 0,17.91746 78.71909,32.42468 175.80882,32.42468 97.08971,0 175.80883,-14.50722 175.80883,-32.42468 0,-17.91744 -78.71912,-32.42468 -175.80883,-32.42468 z m 0.59902,2.3711 c 93.8514,0 169.93853,12.76826 169.93853,28.57166 0,15.80338 -76.08713,28.63093 -169.93853,28.63093 -93.85143,0 -169.93856,-12.82755 -169.93856,-28.63093 0,-15.8034 76.08713,-28.57166 169.93856,-28.57166 z"
       style="fill:url(#linearGradient3992);fill-opacity:1;stroke:none" />
    <path
       sodipodi:nodetypes="aaaaaaaaa"
       inkscape:connector-curvature="0"
       id="path3150"
       d="m -290.96864,426.40767 c -23.18821,0.2141 -48.46029,-1.07983 -68.85018,9.96515 -8.84229,4.78978 -20.83842,12.63293 -19.93031,22.64809 1.32024,14.56032 20.9495,21.5072 34.42509,27.1777 17.39988,7.32184 37.29085,7.46322 56.16725,7.24738 20.46441,-0.234 42.50172,0.12193 60.69686,-9.24738 10.40274,-5.35674 24.77878,-13.48112 24.45993,-25.1777 -0.33594,-12.32342 -15.99943,-19.885 -27.1777,-25.08363 -18.21432,-8.47085 -39.70407,-7.71507 -59.79094,-7.52961 z"
       style="fill:url(#radialGradient3994);fill-opacity:1;stroke:none" />
    <path
       inkscape:connector-curvature="0"
       id="path3972"
       d="m -275.6875,424.3125 c -5.15721,-0.0316 -10.30003,0.0475 -15.3125,0.0937 -23.1004,0.21329 -48.72528,-1.18704 -69.78125,10.21875 -4.49008,2.43223 -9.81083,5.62555 -14.03125,9.65625 -4.22042,4.0307 -7.46732,9.06312 -6.9375,14.90625 0.73804,8.13946 6.58993,14.01598 13.59375,18.4375 7.00382,4.42152 15.37557,7.59241 22.0625,10.40625 17.89364,7.52962 38.0663,7.62239 56.96875,7.40625 20.42481,-0.23355 42.79593,0.2109 61.59375,-9.46875 5.23387,-2.6951 11.53721,-6.10594 16.625,-10.46875 5.08779,-4.36281 9.08833,-9.85188 8.90625,-16.53125 -0.19074,-6.99698 -4.71638,-12.48573 -10.3125,-16.75 -5.59612,-4.26427 -12.4298,-7.48871 -18.03125,-10.09375 -14.10073,-6.55776 -29.87212,-7.71769 -45.34375,-7.8125 z m -0.0312,4 c 15.27224,0.11773 30.46675,1.28898 43.6875,7.4375 5.57682,2.59359 12.16707,5.75922 17.28125,9.65625 5.11418,3.89703 8.6048,8.32981 8.75,13.65625 0.13677,5.01721 -2.8788,9.44354 -7.5,13.40625 -4.6212,3.96271 -10.70613,7.27586 -15.875,9.9375 -17.59246,9.05897 -39.30849,8.7968 -59.8125,9.03125 -18.85035,0.21554 -38.46888,0.0203 -55.375,-7.09375 -6.78866,-2.85666 -14.95898,-5.98413 -21.46875,-10.09375 -6.50977,-4.10962 -11.13655,-8.98539 -11.71875,-15.40625 -0.37829,-4.17203 1.92631,-8.06414 5.6875,-11.65625 3.76119,-3.59211 8.83529,-6.70495 13.1875,-9.0625 19.72381,-10.68417 44.66148,-9.50384 67.9375,-9.71875 5.03097,-0.0464 10.128,-0.13299 15.21875,-0.0937 z"
       style="font-size:medium;font-style:normal;font-variant:normal;font-weight:normal;font-stretch:normal;text-indent:0;text-align:start;text-decoration:none;line-height:normal;letter-spacing:normal;word-spacing:normal;text-transform:none;direction:ltr;block-progression:tb;writing-mode:lr-tb;text-anchor:start;baseline-shift:baseline;color:#000000;fill:url(#linearGradient3996);fill-opacity:1;stroke:none;stroke-width:4;marker:none;visibility:visible;display:inline;overflow:visible;enable-background:accumulate;font-family:Sans;-inkscape-font-specification:Sans" />
    <path
       sodipodi:nodetypes="sssssssssssccccccccccsssssssssssssscsssccccccccccccsssssssssccccc"
       inkscape:connector-curvature="0"
       id="path3950"
       d="m -314.875,20.5625 c -3.63147,0.0026 -7.26337,0.0296 -10.90625,0.0625 -43.71455,0.394767 -88.07659,3.547781 -126.84375,22.6875 -2.69194,1.329038 -6.4331,3.095138 -9.46875,5.46875 -1.51783,1.186806 -2.89509,2.553672 -3.8125,4.21875 -0.91741,1.665078 -1.30534,3.740903 -0.6875,5.78125 0.91738,3.029573 3.27028,6.758275 6.78125,11.625 3.51097,4.866725 8.19689,10.747506 13.78125,17.40625 11.16871,13.31749 25.91528,29.75907 41.78125,47.25 31.73195,34.98185 67.9708,74.17664 88.9375,100.625 3.14351,3.96537 5.96435,12.18427 7.75,19.25 1.76833,6.9972 2.63907,12.76136 2.65625,12.875 l 2.5625,155.0625 -10.5,15.125 c -5.89585,6.65191 8.17583,-4.35421 8.84375,-4.8125 l 5.75,-8.34375 0.4375,-0.59375 -0.0312,-0.71875 -2.5625,-155.96875 0,-0.125 -0.0312,-0.15625 c 0,0 -0.90492,-6.13659 -2.75,-13.4375 -1.84508,-7.30091 -4.48031,-15.74862 -8.59375,-20.9375 -21.18992,-26.72994 -57.44657,-65.91769 -89.15625,-100.875 -15.85484,-17.47865 -30.56843,-33.90397 -41.65625,-47.125 -5.54391,-6.610515 -10.19072,-12.40789 -13.59375,-17.125 -3.40303,-4.71711 -5.54352,-8.464185 -6.09375,-10.28125 -0.25733,-0.849798 -0.16203,-1.482492 0.3125,-2.34375 0.47453,-0.861258 1.39804,-1.853126 2.625,-2.8125 2.45392,-1.918747 5.99525,-3.655383 8.71875,-5 37.7163,-18.620897 81.40188,-21.761363 124.90625,-22.1875 14.50146,-0.142046 28.98396,0.0085 43.21875,0 50.79523,-0.03045 106.39051,1.045824 150.28125,19.6875 3.03111,1.2874 7.4492,4.414281 10.53125,7.53125 1.54103,1.558484 2.76564,3.136082 3.375,4.3125 0.60936,1.176418 0.42241,1.538187 0.46875,1.46875 -8.0156,12.011148 -35.61745,42.14966 -66.125,76 -30.50755,33.85034 -64.03606,71.66449 -84.625,100.1875 -3.77624,5.23144 -7.13991,13.12052 -9.65625,19.8125 -2.51634,6.69198 -4.125,12.15625 -4.125,12.15625 l -0.0937,0.3125 0,0.3125 -1.28125,155.6875 -0.0312,0.65625 0.375,0.59375 6.6875,10.1875 C -277.18225,433.04118 -278,432.03125 -278,432.03125 l 10.5625,8 -1.3125,-1.96875 -10.5,-16.0625 1.28125,-154.65625 c 0.073,-0.24377 1.53796,-5.2124 3.9375,-11.59375 2.45764,-6.53586 5.83011,-14.30325 9.0625,-18.78125 20.33475,-28.17085 53.85384,-65.95049 84.34375,-99.78125 30.48991,-33.83076 57.82332,-63.48266 66.53125,-76.53125 1.30008,-1.948131 0.70161,-4.194067 -0.25,-6.03125 -0.95161,-1.837183 -2.4096,-3.639812 -4.15625,-5.40625 -3.4933,-3.532876 -8.04572,-6.865022 -11.96875,-8.53125 C -175.55487,21.538108 -231.64417,20.625764 -282.5,20.65625 c -10.64815,0.0064 -21.48058,-0.101473 -32.375,-0.09375 z m 37.25,419.375 c -0.4731,0.19417 -0.96936,0.38377 -1.59375,0.625 -0.0889,0.0344 -0.19149,0.0595 -0.28125,0.0937 0.0846,-0.007 0.55221,-0.0264 0.59375,-0.0312 0.31332,-0.0364 0.80477,-0.32963 1.28125,-0.6875 z"
       style="font-size:medium;font-style:normal;font-variant:normal;font-weight:normal;font-stretch:normal;text-indent:0;text-align:start;text-decoration:none;line-height:normal;letter-spacing:normal;word-spacing:normal;text-transform:none;direction:ltr;block-progression:tb;writing-mode:lr-tb;text-anchor:start;baseline-shift:baseline;color:#000000;fill:url(#linearGradient3998);fill-opacity:1;stroke:none;stroke-width:4.5;marker:none;visibility:visible;display:inline;overflow:visible;enable-background:accumulate;font-family:Sans;-inkscape-font-specification:Sans" />
    <path
       transform="matrix(1.1495294,0,0,0.99845401,-689.59925,-276.2015)"
       d="m 434.10219,418.24081 c 0,6.9188 -39.19854,12.5276 -87.55239,12.5276 -48.35384,0 -87.55238,-5.6088 -87.55238,-12.5276 0,-6.91879 39.19854,-12.52759 87.55238,-12.52759 48.35385,0 87.55239,5.6088 87.55239,12.52759 z"
       sodipodi:ry="12.527592"
       sodipodi:rx="87.552383"
       sodipodi:cy="418.24081"
       sodipodi:cx="346.5498"
       id="path3775"
       style="fill:url(#radialGradient4000);fill-opacity:1;stroke:none"
       sodipodi:type="arc" />
    <path
       sodipodi:nodetypes="csccsc"
       inkscape:connector-curvature="0"
       id="path3129"
       d="m -332.46875,3.8125 c 0,0 19.86478,91.029261 26.84375,123.03125 5.20267,23.8568 6.69887,31.00406 13,59.71875 l 3.15625,0 c -3.23703,-20.59941 -7.1165,-43.70659 -10.5,-59.53125 -8.88092,-41.536161 -32.5,-123.21875 -32.5,-123.21875 z"
       style="fill:url(#linearGradient4002);fill-opacity:1;stroke:none" />
    <path
       sodipodi:nodetypes="ccaccaac"
       inkscape:connector-curvature="0"
       id="path3088"
       d="m -335.06489,152.58923 85.5331,1.81185 c 0,0 -3.54459,-7.89624 -6.6237,-10.777 -1.46932,-1.37467 -3.36514,-2.43399 -5.34146,-2.81185 -15.56372,2.67343 -28.32061,4.73282 -42.57839,2.71777 -4.96683,-0.74758 -9.41933,-5.07912 -14.4007,-4.43554 -3.91459,0.50576 -7.03169,3.71484 -10.05923,6.24739 -2.49411,2.08633 -6.52962,7.24738 -6.52962,7.24738 z"
       style="fill:#c3d5af;fill-opacity:1;stroke:none" />
    <path
       sodipodi:nodetypes="caaaaaacc"
       inkscape:connector-curvature="0"
       id="path3070"
       d="m -317.44946,153.81884 c 0,0 -10.12988,11.08267 -12.30662,18.02439 -2.16856,6.91562 -3.89012,15.51126 -0.18816,21.74215 5.24425,8.82677 17.08445,12.61321 27.1777,14.49478 12.26145,2.28576 25.86447,0.79632 37.14286,-4.52962 7.91873,-3.73943 14.98562,-10.34814 19.02439,-18.11846 2.81652,-5.4188 3.18753,-12.02951 2.71777,-18.11847 -0.38938,-5.04702 -4.52962,-14.49477 -4.52962,-14.49477 z"
       style="fill:url(#linearGradient4004);fill-opacity:1;stroke:none" />
    <path
       sodipodi:nodetypes="cssssssssscsszc"
       inkscape:connector-curvature="0"
       id="path3777"
       d="m -205.72284,135.80236 c 0,0 -8.98995,3.49224 -10.9197,4.6477 -1.92974,1.15549 -15.28651,1.07987 -17.21626,1.07987 -1.92974,0 -6.4325,3.45795 -8.04063,4.38234 -1.60813,0.92437 -3.53788,3.01275 -5.14601,4.39932 -1.60813,1.38658 -32.16255,1.84876 -49.2087,1.84876 -17.04614,0 -43.41943,-2.77315 -45.02757,-3.69752 -1.60813,-0.92439 4.60814,-2.77741 3.64324,-4.39509 -0.96488,-1.61768 -11.07575,1.15549 -13.32713,0.92439 -2.25137,-0.2311 -10,-5.54207 -10.96489,-6.92863 -0.96486,-1.38659 -17.16435,-1.79894 -17.16435,-1.79894 0,0 -12.73888,2.65309 -12.73888,5.65734 0,3.00424 16.78135,12.96602 99.11747,13.01162 84.25076,0.0466 102.42672,-9.87939 102.42672,-12.58064 0,-2.70126 -7.00806,-4.76798 -15.43331,-6.55052 z"
       style="fill:url(#radialGradient4006);fill-opacity:1;stroke:none" />
    <path
       style="fill:url(#radialGradient4008);fill-opacity:1;stroke:none"
       d="m -278.01255,432.02609 c 0,0 2.29665,2.83823 1.37261,3.81364 -0.92405,0.97542 -4.45218,2.43854 -4.11617,3.02378 0.33602,0.58526 4.28417,-0.9754 4.53618,-0.58524 0.25202,0.39018 -1.84807,2.24346 -2.6881,2.341 -0.84004,0.0976 -8.31844,-2.8996 -11.84075,-2.8193 -4.23028,0.0964 -13.69631,2.11192 -14.11635,1.91685 -0.42001,-0.19509 -1.64311,-0.65821 -1.39111,-1.14592 0.25202,-0.4877 2.48316,1.07295 2.81918,0.39016 0.33601,-0.68279 -0.50085,-5.83678 -0.50085,-5.83678 l -10.34844,7.11027 c 0,0 12.35026,7.99475 22.75713,7.99475 10.40687,0 24.24161,-8.06015 24.24161,-8.06015 z"
       id="path3045"
       inkscape:connector-curvature="0"
       sodipodi:nodetypes="csssssssscczcc" />
    <path
       sodipodi:nodetypes="ccacccsascc"
       inkscape:connector-curvature="0"
       id="path3858"
       d="m -384.11148,147.66552 79.72125,87.87456 c 0,0 9.05051,9.10482 14.87108,9.15331 5.67587,0.0473 14.64808,-8.68292 14.64808,-8.68292 l 72.85017,-85.62718 -10.87108,6.71777 c 0,0 -40.8057,55.0015 -59.07317,68.7561 -4.48715,3.37862 -10.69003,4.18851 -16.30662,4.24738 -5.21244,0.0546 -10.78506,-0.87234 -15.21254,-3.62369 -23.48386,-14.59346 -69.75609,-73.37979 -69.75609,-73.37979 z"
       style="fill:url(#linearGradient4010);fill-opacity:1;stroke:none" />
    <path
       sodipodi:nodetypes="caccscacscc"
       inkscape:connector-curvature="0"
       id="path3870"
       d="m -300.31358,435.74913 c 0,0 5.73751,0 8.60627,0 3.53543,0 10.60628,0 10.60628,0 l -4.71777,-9.96515 c 0,0 1.0446,-99.95389 -0.0941,-158.50174 -0.13257,-6.81655 7.8885,-22.87108 7.8885,-22.87108 0,0 -8.00713,6.88277 -12.777,6.52962 -5.18119,-0.3836 -12.68293,-9.05924 -12.68293,-9.05924 0,0 4.36064,12.94905 4.52962,16.87108 2.6455,61.40038 4.07665,169.74913 4.07665,169.74913 -3.80727,2.47864 -6.06279,2.85662 -5.43554,7.24738 z"
       style="fill:url(#linearGradient4012);fill-opacity:1;stroke:none" />
    <path
       id="path3120"
       d="m -287.8125,197.40625 c -0.77273,0.19897 -1.50163,0.53818 -2.21875,1 3.57742,16.30626 7.375,33.6875 7.375,33.6875 0,0 -2.17053,-15.20929 -5.15625,-34.6875 z"
       style="fill:#deaa87;fill-opacity:1;stroke:none"
       inkscape:connector-curvature="0" />
    <path
       inkscape:connector-curvature="0"
       id="path3112"
       d="m -288.60507,131.44142 c -8.74251,-0.006 -17.59537,1.87518 -25.4375,5.34375 -2.32721,1.02933 -4.74611,2.20757 -7.09375,3.53125 0.84379,-0.37566 1.73303,-0.66197 2.65625,-0.78125 4.98137,-0.64358 9.43942,3.68992 14.40625,4.4375 14.25778,2.01505 26.99878,-0.0453 42.5625,-2.71875 1.97632,0.37786 3.87443,1.43783 5.34375,2.8125 0.91865,0.85947 1.88607,2.18376 2.78125,3.59375 l 0.59375,0 c -0.42334,-0.60713 -0.89191,-1.18962 -1.375,-1.75 -5.718,-6.63279 -14.1209,-11.43257 -22.6875,-13.25 -3.81285,-0.80891 -7.77613,-1.21595 -11.75,-1.21875 z"
       style="fill:url(#linearGradient4014);fill-opacity:1;stroke:none" />
    <path
       transform="matrix(0.97631853,0.21633801,-0.21633801,0.97631853,-435.39981,-23.863279)"
       d="m 228.29267,157.63068 c 0,6.50426 -3.85316,11.777 -8.60627,11.777 -4.75311,0 -8.60627,-5.27274 -8.60627,-11.777 0,-6.50426 3.85316,-11.77701 8.60627,-11.77701 4.75311,0 8.60627,5.27275 8.60627,11.77701 z"
       sodipodi:ry="11.777003"
       sodipodi:rx="8.6062717"
       sodipodi:cy="157.63068"
       sodipodi:cx="219.6864"
       id="path3118"
       style="opacity:0.82274248;fill:url(#linearGradient4016);fill-opacity:1;stroke:none"
       sodipodi:type="arc" />
    <path
       style="fill:url(#linearGradient4018);fill-opacity:1;stroke:none"
       d="m -290.46637,24.010165 c -97.08973,0 -175.80882,14.50724 -175.80882,32.42468 0,17.91746 78.71909,32.42468 175.80882,32.42468 97.08971,0 175.80883,-14.50722 175.80883,-32.42468 0,-17.91744 -78.71912,-32.42468 -175.80883,-32.42468 z m 0.59902,2.3711 c 93.8514,0 169.93853,12.76826 169.93853,28.57166 0,15.80338 -76.08713,28.63093 -169.93853,28.63093 -93.85143,0 -169.93856,-12.82755 -169.93856,-28.63093 0,-15.8034 76.08713,-28.57166 169.93856,-28.57166 z"
       id="path3134"
       inkscape:connector-curvature="0" />
    <path
       sodipodi:nodetypes="caacaac"
       inkscape:connector-curvature="0"
       id="path3151"
       d="m -308.46689,137.43555 c 0,0 10.17671,-2.79582 15.4007,-3.35888 4.95388,-0.53394 10.05877,-0.96135 14.94773,0 3.52149,0.69245 9.96516,4.07665 9.96516,4.07665 0,0 -11.08127,2.88239 -16.75958,3.17074 -5.29711,0.26899 -10.65699,-0.29761 -15.85366,-1.35889 -2.6471,-0.5406 -7.70035,-2.52962 -7.70035,-2.52962 z"
       style="fill:url(#linearGradient4020);stroke:none" />
    <path
       sodipodi:nodetypes="cacac"
       inkscape:connector-curvature="0"
       id="path3177"
       d="m -337.34493,448.71429 c 0,0 27.13499,18.25656 42.67247,18.83623 16.89252,0.63022 47.79094,-16.96515 47.79094,-16.96515 0,0 -31.37526,11.72668 -47.69687,11.18815 -14.89723,-0.49153 -42.76654,-13.05923 -42.76654,-13.05923 z"
       style="opacity:0.73913042;fill:url(#linearGradient4022);stroke:none" />
  </g>
</svg>
